{
  "src_folders" : ["tests/js/e2e"],
  "output_folder": "./reports/e2e/",
  "webdriver" : {
    "start_process": true,
    "server_path": "node_modules/.bin/chromedriver",
    "port": 9515
  },

  "test_settings" : {
    "default" : {
      "desiredCapabilities": {
        "browserName": "chrome"
      },
      "screenshots" : {
        "enabled" : true,
        "path" : "./reports/e2e/screenshots",
        "on_failure": true,
        "on_error": true
      }
    }
  }
}